{
    "t1_dipwvtv": 1,
    "t1_dctegi4": 0,
    "t1_d4vri90": 1,
    "t1_d2v90lz": 1,
    "t1_dd1k4g6": 1,
    "t1_cybdi0o": 0,
    "t1_cvt22sf": 0,
    "t1_cxmkueu": 0,
    "t1_ddwnbvz": 1,
    "t1_cp0nvxh": 0,
    "t1_codklzb": 1,
    "t1_cuwfuyo": 0,
    "t1_cqilgn2": 1,
    "t1_cmbfvhj": 0,
    "t1_crf29br": 1,
    "t1_cn4sadr": 0,
    "t1_cp9hlx2": 1,
    "t1_dibi4cc": 0,
    "t1_djka87l": 1,
    "t1_dh3d1uu": 0,
    "t1_d2akid1": 1,
    "t1_crbszo1": 0,
    "t1_d67fio9": 1,
    "t1_cmt8fwl": 0,
    "t1_dk50zlh": 1,
    "t1_ce5s1ev": 1,
    "t1_cztoz4x": 1,
    "t1_cfky7rz": 1,
    "t1_dbmbal4": 1,
    "t1_d2mlt6l": 1,
    "t1_d6kard3": 1,
    "t1_ciudetm": 0,
    "t1_cvohlk6": 1,
    "t1_dj04ggb": 0,
    "t1_dl0tdwo": 1,
    "t1_d9vv81j": 0,
    "t1_djru4x6": 0,
    "t1_dgbxoci": 0,
    "t1_d2ptbtr": 1,
    "t1_cf3217k": 0,
    "t1_deu33nd": 1,
    "t1_czikipe": 0,
    "t1_cwleev4": 1,
    "t1_cj3p4np": 0,
    "t1_ct15lzz": 0,
    "t1_d17ilya": 0,
    "t1_d62wvxe": 1,
    "t1_dgdputo": 1,
    "t1_d9w67nx": 1,
    "t1_dn7ntmv": 0,
    "t1_cx8wd21": 0,
    "t1_cpmyb0w": 0,
    "t1_dfl8nmb": 0,
    "t1_cuvlqi2": 0,
    "t1_cw6ac77": 0,
    "t1_de3l1ch": 0,
    "t1_cm65c90": 1,
    "t1_dgu38tg": 1,
    "t1_dmnmfcg": 1,
    "t1_coqxswz": 0,
    "t1_cxlaac6": 0,
    "t1_disclpb": 0,
    "t1_dh8dw6y": 1,
    "t1_d48i3bs": 0,
    "t1_cox4a7v": 1,
    "t1_dhvaar7": 0,
    "t1_djzy50v": 1,
    "t1_d6l2bte": 0,
    "t1_dh203k3": 1,
    "t1_dcsjk59": 1,
    "t1_cwjj646": 1,
    "t1_d5iha3x": 0,
    "t1_d6qfv32": 1,
    "t1_dez83ma": 0,
    "t1_dd60nxu": 1,
    "t1_dezss12": 0,
    "t1_cy2g15y": 1,
    "t1_dlamoay": 0,
    "t1_d0e6v20": 0,
    "t1_clya6rm": 1,
    "t1_cw1gso3": 1,
    "t1_dgg84ib": 0,
    "t1_d6rmxmu": 1,
    "t1_coxhy3u": 0,
    "t1_clyvg6f": 0,
    "t1_clzic7j": 1,
    "t1_czbjtff": 0,
    "t1_dac5u0n": 0,
    "t1_d5pa2dc": 0,
    "t1_chox9ib": 0,
    "t1_dg9r00a": 1,
    "t1_d6u6r2x": 0,
    "t1_cpc6n6a": 0,
    "t1_cjl702a": 0,
    "t1_cj7kmfk": 1,
    "t1_cu6op07": 1,
    "t1_dh8twn9": 0,
    "t1_cii4t52": 0,
    "t1_dkn16ne": 1,
    "t1_cigbh1n": 0,
    "t1_d3yuszq": 1,
    "t1_cihul28": 0,
    "t1_dkuj3w1": 1,
    "t1_d6sybg9": 0,
    "t1_d85pb3o": 1,
    "t1_djchtlc": 0,
    "t1_d2k238y": 0,
    "t1_c9s17ah": 0,
    "t1_ddxy48x": 1,
    "t1_dnballu": 0,
    "t1_dlofn5f": 1,
    "t1_d8mbhg6": 0,
    "t1_d3r5lw2": 0,
    "t1_cbf50ig": 0,
    "t1_dhfmmob": 0,
    "t1_d08qu7k": 0,
    "t1_disj997": 0,
    "t1_cqxffpz": 0,
    "t1_dco1rsd": 1,
    "t1_djckzig": 0,
    "t1_deaxcdk": 1,
    "t1_dhqwy01": 0,
    "t1_cqwxy95": 1,
    "t1_df2ez6o": 0,
    "t1_dkw4m70": 1,
    "t1_cupfjet": 0,
    "t1_cvjh1ix": 1,
    "t1_cu41hav": 0,
    "t1_cvg88x9": 1,
    "t1_di4i436": 0,
    "t1_d3s7bm7": 1,
    "t1_cf0e8n2": 1,
    "t1_d48dgv5": 1,
    "t1_cy7htto": 0,
    "t1_czgkjn4": 1,
    "t1_dkeyemo": 0,
    "t1_d6jr7z0": 0,
    "t1_cjaq2ge": 0,
    "t1_ddqmjz9": 1,
    "t1_cdd57zm": 0,
    "t1_dgslqtq": 1,
    "t1_cnconu7": 0,
    "t1_d2hedzv": 1,
    "t1_dlph2pt": 0,
    "t1_cxbk1br": 1,
    "t1_dkp9idd": 0,
    "t1_dl10nkv": 1,
    "t1_cg00gpy": 0,
    "t1_dcv6a5o": 1,
    "t1_csyxqkl": 0,
    "t1_d3eeop9": 1,
    "t1_dm9fzqj": 0,
    "t1_dl66hcq": 1,
    "t1_cl9naqv": 1,
    "t1_dbt1dhw": 1,
    "t1_dg6cpw0": 1,
    "t1_d794pgn": 1,
    "t1_d03hshv": 1,
    "t1_cmlmi0n": 1,
    "t1_d9ab09h": 0,
    "t1_dfack4x": 1,
    "t1_cyciv7n": 0,
    "t1_dcurm1l": 1,
    "t1_d1immdd": 0,
    "t1_cpg3suy": 1,
    "t1_dletgg3": 0,
    "t1_ddve37i": 1,
    "t1_cdid3gl": 0,
    "t1_dloheid": 1,
    "t1_dek2z3l": 0,
    "t1_cuv4bfs": 1,
    "t1_cxw91rm": 0,
    "t1_cq3vzot": 1,
    "t1_cc2bava": 0,
    "t1_coqipr6": 1,
    "t1_d8ih1z3": 0,
    "t1_cje26fi": 1,
    "t1_ckctr11": 0,
    "t1_cjut30h": 1,
    "t1_ddjpllf": 0,
    "t1_db1j8uz": 1,
    "t1_dd2ityp": 0,
    "t1_dmfebte": 1,
    "t1_dlnbpta": 1,
    "t1_cx1kav3": 1,
    "t1_d9hevda": 0,
    "t1_cvsq957": 1,
    "t1_dfarp8c": 1,
    "t1_dmxkj7g": 0,
    "t1_djvpstq": 0,
    "t1_dcuwvw5": 1,
    "t1_d764dim": 0,
    "t1_dlj9akx": 0,
    "t1_dicam2w": 0,
    "t1_d10arr0": 1,
    "t1_cetkblp": 0,
    "t1_d4rcy6k": 1,
    "t1_cu0q2kb": 1,
    "t1_cw18qa6": 1,
    "t1_ck0edto": 0,
    "t1_d0gxnse": 1,
    "t1_cmv1xfd": 0,
    "t1_cwuryv6": 1,
    "t1_dj7v7y6": 0,
    "t1_ctgpw5a": 0,
    "t1_cmzanx8": 0,
    "t1_d7azjns": 1,
    "t1_cdcger4": 0,
    "t1_d5uis62": 1,
    "t1_dl9vb83": 0,
    "t1_dcc6ges": 1,
    "t1_cxc90y8": 0,
    "t1_dgywa17": 0,
    "t1_caop01n": 0,
    "t1_cjivf4n": 1,
    "t1_djvjw6p": 1,
    "t1_cj28ab0": 1,
    "t1_d9dgr00": 0,
    "t1_denzw80": 0,
    "t1_coztjh8": 0,
    "t1_d1ril1j": 1,
    "t1_cobhakm": 1,
    "t1_de92cak": 0,
    "t1_cukdj0k": 0,
    "t1_dmlex3b": 1,
    "t1_cro6ha5": 0,
    "t1_d9bda5d": 1,
    "t1_dhwdph1": 0,
    "t1_d7s16sq": 1,
    "t1_cch94dr": 0,
    "t1_dd0ughj": 0,
    "t1_dij8yub": 0,
    "t1_dkoivia": 1,
    "t1_cxfef52": 0,
    "t1_d20aatq": 0,
    "t1_coj5fan": 0,
    "t1_cmkq0mq": 1,
    "t1_cssb5w4": 0,
    "t1_cs94l8c": 0,
    "t1_dklw5zj": 0,
    "t1_dcx85h6": 1,
    "t1_dbnmlk8": 0,
    "t1_d9q0q82": 1,
    "t1_dk34pxl": 0,
    "t1_d5rrv8s": 0,
    "t1_cre2rtw": 0,
    "t1_d2gr6zj": 1,
    "t1_ct5zwlk": 0,
    "t1_cyb6qi4": 1,
    "t1_d9izimu": 0,
    "t1_div1tx6": 1,
    "t1_d0v1qd4": 0,
    "t1_cle91a2": 0,
    "t1_cgmqm3y": 0,
    "t1_cvoj5re": 1,
    "t1_cpcigu7": 0,
    "t1_cnu1fi5": 1,
    "t1_dhdub9z": 0
}